key,value,help
test,T,str_is_Tor_F
wavelength,400,float_is_wavelength_of_probing_light_in_nm
substance,nitrogen,string_is_name_of_fluid_substance
substance_state,gas,string_is_state_of_substance
ionization_state,0,float_is_zero_for_neutral
know_magnification,T,string_is_T_or_F
magnification,2,float_is_magnification_of_imaging_system
detector_width,6,float_is_horizontal_extend_in_mm
detector_height,8,float_is_vertical_extend_in_mm
calibration_1,usr/cali/cali_1.tif,string_is_filename_in_pyridi_directory_or_as_abspath
calibration_2,usr/cali/cali_2.tif,string_is_filename_in_pyridi_directory_or_as_abspath
delta_x_1_2,10,float_is_horizontal_calibration_distance_in_mm
delta_y_1_2,10,float_is_vertical_calibration_distance_in_mm
data,TEST/DATA,string_is_dir_or_filename_in_pyridi_directory_or_as_abspath
reference,TEST/ref.tif,string_is_dir_or_filename_in_pyridi_directory_or_as_abspath
channel,A,string_is_useful_detector_channel
